movie_profit
…
options(stringsAsFactors = FALSE)

movies <- dat %>% 
  mutate(release_date = mdy(release_date)) %>% 
  mutate(profit_ratio = ((worldwide_gross - production_budget) / worldwide_gross))
movies

## # A tibble: 3,401 x 9
##    release_date movie      production_budg domestic_gross worldwide_gross
##    <date>       <chr>                 <dbl>          <dbl>           <dbl>
##  1 2007-06-22   Evan Almi        175000000      100289690       174131329
##  2 1995-07-28   Waterworld        175000000       88246220       264246220
##  3 2017-05-12   King Arth        175000000       39175066       139950708
##  4 2013-12-25   47 Ronin          175000000       38362475       151716815
##  5 2018-06-22   Jurassic         170000000      416769345      1304866322
##  6 2014-08-01   Guardians        170000000      333172112       771051335
##  7 2010-05-07   Iron Man 2        170000000      312433331       621156389
##  8 2014-04-04   Captain A        170000000      259746958       714401889
##  9 2014-07-11   Dawn of t        170000000      208545589       710644566
## 10 2004-11-10   The Polar        170000000      186493587       310634169
## # ... with 3,391 more rows, and 4 more variables: distributor <chr>,
## #   mpaa_rating <chr>, genre <chr>, profit_ratio <dbl>
…
